simulation/qsim/mic1.msim.vcd
$comment
	File created using the following command:
		vcd file mic1.msim.vcd -direction
$end
$date
	Thu Apr 03 17:01:12 2025
$end
$version
	ModelSim Version 10.1d
$end
$timescale
	1ps
$end
$scope module decoder_2x4_vlg_vec_tst $end
$var reg 1 ! I0 $end
$var reg 1 " I1 $end
$var wire 1 # O0 $end
$var wire 1 $ O1 $end
$var wire 1 % O2 $end
$var wire 1 & O3 $end
$var wire 1 ' sampler $end
$scope module i1 $end
$var wire 1 ( gnd $end
$var wire 1 ) vcc $end
$var wire 1 * unknown $end
$var tri1 1 + devclrn $end
$var tri1 1 , devpor $end
$var tri1 1 - devoe $end
$var wire 1 . I0~combout $end
$var wire 1 / I1~combout $end
$var wire 1 0 inst4~combout $end
$var wire 1 1 inst6~0_combout $end
$var wire 1 2 inst6~1_combout $end
$var wire 1 3 inst6~2_combout $end
$upscope $end
$upscope $end
$enddefinitions $end
#0
$dumpvars
0!
0"
x#
x$
x%
x&
x'
0(
1)
x*
1+
1,
1-
0.
0/
x0
x1
x2
x3
$end
#1187
03
#1189
02
#4626
0&
#4784
0%
#5225
00
#5229
01
#8823
0$
#8849
1#
#251280
1!
0'
#252269
1.
#253427
10
#253458
12
#257051
0#
#257053
1%
#499680
1"
1'
#500400
0!
0'
#500540
1/
#501389
0.
#502547
00
#502578
02
#505765
10
#505769
11
#506171
1#
#506173
0%
#509363
1$
#509389
0#
#750960
1!
1'
#751949
1.
#753136
13
#753137
01
#756575
1&
#756731
0$
